{
    "questions": [
        {
            "message": "message text",
            "questionId": 0,
            "questionText": "Question 0 text?"
        },
        {
            "message": "message text",
            "questionId": 1,
            "questionText": "Question 1 text?"
        },
        {
            "message": "message text",
            "questionId": 2,
            "questionText": "Question 2 text?"
        },
        {
            "message": "message text",
            "questionId": 3,
            "questionText": "Question 3 text?"
        },
        {
            "message": "message text",
            "questionId": 4,
            "questionText": "Question 4 text?"
        },
        {
            "message": "message text",
            "questionId": 5,
            "questionText": "Question 5 text?"
        },
        {
            "message": "message text",
            "questionId": 6,
            "questionText": "Question 6 text?"
        },
        {
            "message": "message text",
            "questionId": 7,
            "questionText": "Question 7 text?"
        },
        {
            "message": "message text",
            "questionId": 8,
            "questionText": "Question 8 text?"
        },
        {
            "message": "message text",
            "questionId": 9,
            "questionText": "Question 9 text?"
        }
    ]
}
