{
    "dcrn": "Transaction::L1::FullTransaction",
    "header": {
        "block_id": null,
        "dc_id": "55685447-924c-4c0d-809b-c0002657b416",
        "invoker": "",
        "tag": "",
        "timestamp": "1548305137",
        "txn_id": "83eabdc9-5ae1-4f34-811b-855ea3f7f34c",
        "txn_type": "ds_whitepaper"
    },
    "payload": {
       "method": "submit",
       "parameters": {
            "competitionId": "1",
            "userId": "apple",
	    "userFullName": "Lance Rogers",  	    
	    "userEmail": "lrogers@swapblocks.io",
	    "prjIndustry": "Energy",
	    "whitepaperFile": "Screen Shot 2019-01-22 at 10.13.28 AM.png",
	    "answers": [
	    	{
		"questionText": "Project Name",
		"answer": "true"
		},
		{
		"questionText": "utility token",
		"answer": "true"
		},
		{
		"questionText": "previousICO",
		"answer": "false"
		},
		{
		"questionText": "minted token?",
		"answer": "false"
		},
		{
		"questionText": "Willing to airdrop?",
		"answer": "false"
		},
		{
		"questionText": "Project community link",
		"answer": "mycommunity.com"
		},
		{
		"questionText": "Project description",
		"answer": "This is a description of my project"
		}
		]
        }
    },
    "proof": {
        "full": null,
        "stripped": null
    },
    "version": "1"
}
